…
``` r
library(p8105.datasets)
brfss_df <- brfss_smart2010 %>% 
  janitor::clean_names() %>%
  filter(topic == "Overall Health") %>%
  select(-class, -topic,  -question, -c(confidence_limit_low:geo_location)) %>%
  mutate(response = forcats::fct_relevel(response, "Excellent", "Very good",
                                         "Good", "Fair", "Poor")) %>% 
  separate(locationdesc, into = c('state', 'location'), sep = ' - ') %>%
  select(-locationabbr)

brfss_df
```

    ## # A tibble: 10,625 x 6
    ##     year state location         response  sample_size data_value
    ##    <int> <chr> <chr>            <fct>           <int>      <dbl>
    ##  1  2010 AL    Jefferson County Excellent          94       18.9
    ##  2  2010 AL    Jefferson County Very good         148       30  
    ##  3  2010 AL    Jefferson County Good              208       33.1
    ##  4  2010 AL    Jefferson County Fair              107       12.5
    ##  5  2010 AL    Jefferson County Poor               45        5.5
    ##  6  2010 AL    Mobile County    Excellent          91       15.6
    ##  7  2010 AL    Mobile County    Very good         177       31.3
    ##  8  2010 AL    Mobile County    Good              224       31.2
    ##  9  2010 AL    Mobile County    Fair              120       15.5
    ## 10  2010 AL    Mobile County    Poor               66        6.4
    ## # ... with 10,615 more rows
…
Answering questions
-------------------

### Aisles

There are 134 aisles, and the most items are ordered from fresh vegetables, fresh fruit, packaged fruits and vegetables, yogurt, and packaged cheese.

``` r
cart_df %>% 
  group_by(aisle) %>% 
  summarize(total_items = n()) %>% 
  arrange(desc(total_items))
```

    ## # A tibble: 134 x 2
    ##    aisle                         total_items
    ##    <chr>                               <int>
    ##  1 fresh vegetables                   150609
    ##  2 fresh fruits                       150473
    ##  3 packaged vegetables fruits          78493
    ##  4 yogurt                              55240
    ##  5 packaged cheese                     41699
    ##  6 water seltzer sparkling water       36617
    ##  7 milk                                32644
    ##  8 chips pretzels                      31269
    ##  9 soy lactosefree                     26240
    ## 10 bread                               23635
    ## # ... with 124 more rows
…
Problem 3
=========

    ## # A tibble: 2,595,176 x 7
    ##    id          date        prcp  snow  snwd tmax  tmin 
    ##    <chr>       <date>     <int> <int> <int> <chr> <chr>
    ##  1 US1NYAB0001 2007-11-01    NA    NA    NA <NA>  <NA> 
    ##  2 US1NYAB0001 2007-11-02    NA    NA    NA <NA>  <NA> 
    ##  3 US1NYAB0001 2007-11-03    NA    NA    NA <NA>  <NA> 
    ##  4 US1NYAB0001 2007-11-04    NA    NA    NA <NA>  <NA> 
    ##  5 US1NYAB0001 2007-11-05    NA    NA    NA <NA>  <NA> 
    ##  6 US1NYAB0001 2007-11-06    NA    NA    NA <NA>  <NA> 
    ##  7 US1NYAB0001 2007-11-07    NA    NA    NA <NA>  <NA> 
    ##  8 US1NYAB0001 2007-11-08    NA    NA    NA <NA>  <NA> 
    ##  9 US1NYAB0001 2007-11-09    NA    NA    NA <NA>  <NA> 
    ## 10 US1NYAB0001 2007-11-10    NA    NA    NA <NA>  <NA> 
    ## # ... with 2,595,166 more rows
…
